<?xml version="1.0" encoding="utf-8"?>
<!-- Generator: Adobe Illustrator 23.0.6, SVG Export Plug-In . SVG Version: 6.00 Build 0)  -->
<svg version="1.1" id="Layer_1" xmlns="http://www.w3.org/2000/svg" xmlns:xlink="http://www.w3.org/1999/xlink" x="0px" y="0px"
	 viewBox="0 0 1160 434" style="enable-background:new 0 0 1160 434;" xml:space="preserve">
<style type="text/css">
	.st0{opacity:0.826;fill:#FFFFFF;enable-background:new    ;}
</style>
<path id="Path_875" class="st0" d="M1160.5,433.7H0.5v-434h1050L1160.5,433.7z"/>
</svg>
