<svg xmlns="http://www.w3.org/2000/svg" width="1160" height="434" viewBox="0 0 1160 434">
  <path id="Path_875" data-name="Path 875" d="M-190,0H970V434H-80Z" transform="translate(190)" fill="#fff" opacity="0.826"/>
</svg>
